// Jest Snapshot v1, https://goo.gl/fbAQLP

exports[`SingleCategoryReducer [GetCategoryDetails] should set loading to true, add currentCatId in category state 1`] = `
Object {
  "currentCatId": "test",
  "details": Object {
    "href": "",
    "icons": Object {
      "height": 0,
      "url": "",
      "width": 0,
    },
    "id": "",
    "name": "",
  },
  "loaded": false,
  "loading": true,
  "playlists": Object {
    "items": Array [],
  },
}
`;

exports[`SingleCategoryReducer [GetCategoryDetailsSuccess] should add category details, set loading to false and loaded to true in categories state 1`] = `
Object {
  "currentCatId": "",
  "details": Object {
    "name": "Test",
  },
  "loaded": true,
  "loading": false,
  "playlists": Object {
    "items": Array [],
  },
}
`;

exports[`SingleCategoryReducer [GetCategoryPlaylists] should set loading to true, add currentCatId in category state 1`] = `
Object {
  "currentCatId": "test",
  "details": Object {
    "href": "",
    "icons": Object {
      "height": 0,
      "url": "",
      "width": 0,
    },
    "id": "",
    "name": "",
  },
  "loaded": false,
  "loading": true,
  "playlists": Object {
    "items": Array [],
  },
}
`;

exports[`SingleCategoryReducer [GetCategoryPlaylistsSuccess] should add category playlists, set loading to false and loaded to true in categories state 1`] = `
Object {
  "currentCatId": "",
  "details": Object {
    "href": "",
    "icons": Object {
      "height": 0,
      "url": "",
      "width": 0,
    },
    "id": "",
    "name": "",
  },
  "loaded": true,
  "loading": false,
  "playlists": Object {
    "items": Array [
      Object {
        "name": "Test 1",
      },
      Object {
        "name": "Test 2",
      },
    ],
  },
}
`;

exports[`SingleCategoryReducer [undefined action] should return the default state 1`] = `
Object {
  "currentCatId": "",
  "details": Object {
    "href": "",
    "icons": Object {
      "height": 0,
      "url": "",
      "width": 0,
    },
    "id": "",
    "name": "",
  },
  "loaded": false,
  "loading": false,
  "playlists": Object {
    "items": Array [],
  },
}
`;
