// Jest Snapshot v1, https://goo.gl/fbAQLP

exports[`AuthReducer [LoginSuccess] should add a user info and set loggedIn to true in auth state 1`] = `
Object {
  "loggedIn": true,
  "token": null,
  "user": Object {
    "display_name": "test",
  },
}
`;

exports[`AuthReducer [Logout] should logout a user 1`] = `
Object {
  "loggedIn": false,
  "token": null,
  "user": null,
}
`;

exports[`AuthReducer [undefined action] should return the default state 1`] = `
Object {
  "loggedIn": false,
  "token": null,
  "user": null,
}
`;
