<?xml version="1.0" encoding="UTF-8" standalone="no"?>
<!DOCTYPE svg PUBLIC "-//W3C//DTD SVG 1.1//EN"
 "http://www.w3.org/Graphics/SVG/1.1/DTD/svg11.dtd">
<!-- Generated by graphviz version 2.40.1 (20161225.0304)
 -->
<!-- Title: dependencies Pages: 1 -->
<svg width="908pt" height="211pt"
 viewBox="0.00 0.00 908.00 211.00" xmlns="http://www.w3.org/2000/svg" xmlns:xlink="http://www.w3.org/1999/xlink">
<g id="graph0" class="graph" transform="scale(1 1) rotate(0) translate(4 207)">
<title>dependencies</title>
<polygon fill="#ffffff" stroke="transparent" points="-4,4 -4,-207 904,-207 904,4 -4,4"/>
<text text-anchor="start" x="429.0091" y="-42.4" font-family="sans-serif" font-weight="bold" font-size="14.00" fill="#000000">Legend</text>
<polygon fill="#ffffb3" stroke="transparent" points="216,-10 216,-30 236,-30 236,-10 216,-10"/>
<text text-anchor="start" x="239.629" y="-15.4" font-family="sans-serif" font-size="14.00" fill="#000000"> &#160;Declarations</text>
<polygon fill="#8dd3c7" stroke="transparent" points="329,-10 329,-30 349,-30 349,-10 329,-10"/>
<text text-anchor="start" x="352.7251" y="-15.4" font-family="sans-serif" font-size="14.00" fill="#000000"> &#160;Module</text>
<polygon fill="#80b1d3" stroke="transparent" points="415,-10 415,-30 435,-30 435,-10 415,-10"/>
<text text-anchor="start" x="438.7812" y="-15.4" font-family="sans-serif" font-size="14.00" fill="#000000"> &#160;Bootstrap</text>
<polygon fill="#fdb462" stroke="transparent" points="512,-10 512,-30 532,-30 532,-10 512,-10"/>
<text text-anchor="start" x="535.6732" y="-15.4" font-family="sans-serif" font-size="14.00" fill="#000000"> &#160;Providers</text>
<polygon fill="#fb8072" stroke="transparent" points="608,-10 608,-30 628,-30 628,-10 608,-10"/>
<text text-anchor="start" x="631.7258" y="-15.4" font-family="sans-serif" font-size="14.00" fill="#000000"> &#160;Exports</text>
<g id="clust1" class="cluster">
<title>cluster_PlaylistsModule</title>
<polygon fill="none" stroke="#000000" stroke-dasharray="1,5" points="8,-70 8,-195 892,-195 892,-70 8,-70"/>
</g>
<g id="clust2" class="cluster">
<title>cluster_PlaylistsModule_declarations</title>
<polygon fill="none" stroke="#000000" points="370,-78 370,-130 884,-130 884,-78 370,-78"/>
</g>
<g id="clust9" class="cluster">
<title>cluster_PlaylistsModule_providers</title>
<polygon fill="none" stroke="#000000" points="16,-78 16,-130 362,-130 362,-78 16,-78"/>
</g>
<!-- SinglePlaylistComponent -->
<g id="node1" class="node">
<title>SinglePlaylistComponent</title>
<polygon fill="#ffffb3" stroke="#000000" points="875.615,-122 716.385,-122 716.385,-86 875.615,-86 875.615,-122"/>
<text text-anchor="middle" x="796" y="-99.8" font-family="Times,serif" font-size="14.00" fill="#000000">SinglePlaylistComponent</text>
</g>
<!-- PlaylistsModule -->
<g id="node4" class="node">
<title>PlaylistsModule</title>
<polygon fill="#8dd3c7" stroke="#000000" points="501.4986,-187 498.4986,-191 477.4986,-191 474.4986,-187 394.5014,-187 394.5014,-151 501.4986,-151 501.4986,-187"/>
<text text-anchor="middle" x="448" y="-164.8" font-family="Times,serif" font-size="14.00" fill="#000000">PlaylistsModule</text>
</g>
<!-- SinglePlaylistComponent&#45;&gt;PlaylistsModule -->
<g id="edge1" class="edge">
<title>SinglePlaylistComponent&#45;&gt;PlaylistsModule</title>
<path fill="none" stroke="#000000" d="M796,-122.2843C796,-143.3211 796,-175 796,-175 796,-175 511.6123,-175 511.6123,-175"/>
<polygon fill="#000000" stroke="#000000" points="511.6124,-171.5001 501.6123,-175 511.6123,-178.5001 511.6124,-171.5001"/>
</g>
<!-- PlaylistDetailsComponent -->
<g id="node2" class="node">
<title>PlaylistDetailsComponent</title>
<polygon fill="#ffffb3" stroke="#000000" points="698.4888,-122 535.5112,-122 535.5112,-86 698.4888,-86 698.4888,-122"/>
<text text-anchor="middle" x="617" y="-99.8" font-family="Times,serif" font-size="14.00" fill="#000000">PlaylistDetailsComponent</text>
</g>
<!-- PlaylistDetailsComponent&#45;&gt;PlaylistsModule -->
<g id="edge2" class="edge">
<title>PlaylistDetailsComponent&#45;&gt;PlaylistsModule</title>
<path fill="none" stroke="#000000" d="M617,-122.0225C617,-139.3734 617,-163 617,-163 617,-163 511.9373,-163 511.9373,-163"/>
<polygon fill="#000000" stroke="#000000" points="511.9373,-159.5001 501.9373,-163 511.9373,-166.5001 511.9373,-159.5001"/>
</g>
<!-- TrackItemComponent -->
<g id="node3" class="node">
<title>TrackItemComponent</title>
<polygon fill="#ffffb3" stroke="#000000" points="517.6317,-122 378.3683,-122 378.3683,-86 517.6317,-86 517.6317,-122"/>
<text text-anchor="middle" x="448" y="-99.8" font-family="Times,serif" font-size="14.00" fill="#000000">TrackItemComponent</text>
</g>
<!-- TrackItemComponent&#45;&gt;PlaylistsModule -->
<g id="edge3" class="edge">
<title>TrackItemComponent&#45;&gt;PlaylistsModule</title>
<path fill="none" stroke="#000000" d="M448,-122.1061C448,-122.1061 448,-140.991 448,-140.991"/>
<polygon fill="#000000" stroke="#000000" points="444.5001,-140.9909 448,-150.991 451.5001,-140.991 444.5001,-140.9909"/>
</g>
<!-- SpotifyApiService -->
<g id="node5" class="node">
<title>SpotifyApiService</title>
<ellipse fill="#fdb462" stroke="#000000" cx="271" cy="-104" rx="82.8225" ry="18"/>
<text text-anchor="middle" x="271" y="-99.8" font-family="Times,serif" font-size="14.00" fill="#000000">SpotifyApiService</text>
</g>
<!-- SpotifyApiService&#45;&gt;PlaylistsModule -->
<g id="edge4" class="edge">
<title>SpotifyApiService&#45;&gt;PlaylistsModule</title>
<path fill="none" stroke="#000000" d="M271,-122.0225C271,-139.3734 271,-163 271,-163 271,-163 384.4138,-163 384.4138,-163"/>
<polygon fill="#000000" stroke="#000000" points="384.4139,-166.5001 394.4138,-163 384.4138,-159.5001 384.4139,-166.5001"/>
</g>
<!-- PlaylistsService -->
<g id="node6" class="node">
<title>PlaylistsService</title>
<ellipse fill="#fdb462" stroke="#000000" cx="97" cy="-104" rx="72.9431" ry="18"/>
<text text-anchor="middle" x="97" y="-99.8" font-family="Times,serif" font-size="14.00" fill="#000000">PlaylistsService</text>
</g>
<!-- PlaylistsService&#45;&gt;PlaylistsModule -->
<g id="edge5" class="edge">
<title>PlaylistsService&#45;&gt;PlaylistsModule</title>
<path fill="none" stroke="#000000" d="M97,-122.2843C97,-143.3211 97,-175 97,-175 97,-175 384.3086,-175 384.3086,-175"/>
<polygon fill="#000000" stroke="#000000" points="384.3086,-178.5001 394.3086,-175 384.3085,-171.5001 384.3086,-178.5001"/>
</g>
</g>
</svg>
