<?xml version="1.0" encoding="UTF-8" standalone="no"?>
<!DOCTYPE svg PUBLIC "-//W3C//DTD SVG 1.1//EN"
 "http://www.w3.org/Graphics/SVG/1.1/DTD/svg11.dtd">
<!-- Generated by graphviz version 2.40.1 (20161225.0304)
 -->
<!-- Title: dependencies Pages: 1 -->
<svg width="4255pt" height="436pt"
 viewBox="0.00 0.00 4255.00 436.00" xmlns="http://www.w3.org/2000/svg" xmlns:xlink="http://www.w3.org/1999/xlink">
<g id="graph0" class="graph" transform="scale(1 1) rotate(0) translate(4 432)">
<title>dependencies</title>
<polygon fill="#ffffff" stroke="transparent" points="-4,4 -4,-432 4251,-432 4251,4 -4,4"/>
<text text-anchor="start" x="2102.5091" y="-42.4" font-family="sans-serif" font-weight="bold" font-size="14.00" fill="#000000">Legend</text>
<polygon fill="#ffffb3" stroke="transparent" points="1889.5,-10 1889.5,-30 1909.5,-30 1909.5,-10 1889.5,-10"/>
<text text-anchor="start" x="1913.129" y="-15.4" font-family="sans-serif" font-size="14.00" fill="#000000"> &#160;Declarations</text>
<polygon fill="#8dd3c7" stroke="transparent" points="2002.5,-10 2002.5,-30 2022.5,-30 2022.5,-10 2002.5,-10"/>
<text text-anchor="start" x="2026.2251" y="-15.4" font-family="sans-serif" font-size="14.00" fill="#000000"> &#160;Module</text>
<polygon fill="#80b1d3" stroke="transparent" points="2088.5,-10 2088.5,-30 2108.5,-30 2108.5,-10 2088.5,-10"/>
<text text-anchor="start" x="2112.2812" y="-15.4" font-family="sans-serif" font-size="14.00" fill="#000000"> &#160;Bootstrap</text>
<polygon fill="#fdb462" stroke="transparent" points="2185.5,-10 2185.5,-30 2205.5,-30 2205.5,-10 2185.5,-10"/>
<text text-anchor="start" x="2209.1732" y="-15.4" font-family="sans-serif" font-size="14.00" fill="#000000"> &#160;Providers</text>
<polygon fill="#fb8072" stroke="transparent" points="2281.5,-10 2281.5,-30 2301.5,-30 2301.5,-10 2281.5,-10"/>
<text text-anchor="start" x="2305.2258" y="-15.4" font-family="sans-serif" font-size="14.00" fill="#000000"> &#160;Exports</text>
<g id="clust1" class="cluster">
<title>cluster_AppModule</title>
<polygon fill="none" stroke="#000000" stroke-dasharray="1,5" points="1634,-222 1634,-420 2120,-420 2120,-222 1634,-222"/>
</g>
<g id="clust3" class="cluster">
<title>cluster_AppModule_imports</title>
<polygon fill="none" stroke="#000000" points="1642,-230 1642,-282 2112,-282 2112,-230 1642,-230"/>
</g>
<g id="clust5" class="cluster">
<title>cluster_AppModule_bootstrap</title>
<polygon fill="none" stroke="#000000" points="1800,-360 1800,-412 1924,-412 1924,-360 1800,-360"/>
</g>
<g id="clust7" class="cluster">
<title>cluster_AuthModule</title>
<polygon fill="none" stroke="#000000" stroke-dasharray="1,5" points="2569,-146 2569,-214 3337,-214 3337,-146 2569,-146"/>
</g>
<g id="clust8" class="cluster">
<title>cluster_AuthModule_declarations</title>
<polygon fill="none" stroke="#000000" points="2846,-154 2846,-206 3329,-206 3329,-154 2846,-154"/>
</g>
<g id="clust15" class="cluster">
<title>cluster_AuthModule_providers</title>
<polygon fill="none" stroke="#000000" points="2577,-154 2577,-206 2838,-206 2838,-154 2577,-154"/>
</g>
<g id="clust16" class="cluster">
<title>cluster_CategoriesModule</title>
<polygon fill="none" stroke="#000000" stroke-dasharray="1,5" points="8,-70 8,-138 1298,-138 1298,-70 8,-70"/>
</g>
<g id="clust17" class="cluster">
<title>cluster_CategoriesModule_declarations</title>
<polygon fill="none" stroke="#000000" points="16,-78 16,-130 920,-130 920,-78 16,-78"/>
</g>
<g id="clust26" class="cluster">
<title>cluster_CategoriesModule_providers</title>
<polygon fill="none" stroke="#000000" points="928,-78 928,-130 1290,-130 1290,-78 928,-78"/>
</g>
<g id="clust27" class="cluster">
<title>cluster_CoreModule</title>
<polygon fill="none" stroke="#000000" stroke-dasharray="1,5" points="958,-146 958,-214 2561,-214 2561,-146 958,-146"/>
</g>
<g id="clust28" class="cluster">
<title>cluster_CoreModule_declarations</title>
<polygon fill="none" stroke="#000000" points="1770,-154 1770,-206 2553,-206 2553,-154 1770,-154"/>
</g>
<g id="clust34" class="cluster">
<title>cluster_CoreModule_imports</title>
<polygon fill="none" stroke="#000000" points="1648,-154 1648,-206 1762,-206 1762,-154 1648,-154"/>
</g>
<g id="clust35" class="cluster">
<title>cluster_CoreModule_exports</title>
<polygon fill="none" stroke="#000000" points="966,-154 966,-206 1640,-206 1640,-154 966,-154"/>
</g>
<g id="clust38" class="cluster">
<title>cluster_PlaylistsModule</title>
<polygon fill="none" stroke="#000000" stroke-dasharray="1,5" points="3345,-146 3345,-214 4045,-214 4045,-146 3345,-146"/>
</g>
<g id="clust39" class="cluster">
<title>cluster_PlaylistsModule_declarations</title>
<polygon fill="none" stroke="#000000" points="3523,-154 3523,-206 4037,-206 4037,-154 3523,-154"/>
</g>
<g id="clust46" class="cluster">
<title>cluster_PlaylistsModule_providers</title>
<polygon fill="none" stroke="#000000" points="3353,-154 3353,-206 3515,-206 3515,-154 3353,-154"/>
</g>
<g id="clust47" class="cluster">
<title>cluster_SearchModule</title>
<polygon fill="none" stroke="#000000" stroke-dasharray="1,5" points="1306,-70 1306,-138 2378,-138 2378,-70 1306,-70"/>
</g>
<g id="clust48" class="cluster">
<title>cluster_SearchModule_declarations</title>
<polygon fill="none" stroke="#000000" points="1648,-78 1648,-130 2370,-130 2370,-78 1648,-78"/>
</g>
<g id="clust54" class="cluster">
<title>cluster_SearchModule_exports</title>
<polygon fill="none" stroke="#000000" points="1470,-78 1470,-130 1640,-130 1640,-78 1470,-78"/>
</g>
<g id="clust56" class="cluster">
<title>cluster_SearchModule_providers</title>
<polygon fill="none" stroke="#000000" points="1314,-78 1314,-130 1462,-130 1462,-78 1314,-78"/>
</g>
<g id="clust57" class="cluster">
<title>cluster_SharedComponentsModule</title>
<polygon fill="none" stroke="#000000" stroke-dasharray="1,5" points="4053,-70 4053,-290 4239,-290 4239,-70 4053,-70"/>
</g>
<g id="clust58" class="cluster">
<title>cluster_SharedComponentsModule_declarations</title>
<polygon fill="none" stroke="#000000" points="4062,-78 4062,-130 4230,-130 4230,-78 4062,-78"/>
</g>
<g id="clust61" class="cluster">
<title>cluster_SharedComponentsModule_exports</title>
<polygon fill="none" stroke="#000000" points="4061,-230 4061,-282 4231,-282 4231,-230 4061,-230"/>
</g>
<!-- CoreModule -->
<g id="node1" class="node">
<title>CoreModule</title>
<polygon fill="#8dd3c7" stroke="#000000" points="1874.2619,-274 1871.2619,-278 1850.2619,-278 1847.2619,-274 1787.7381,-274 1787.7381,-238 1874.2619,-238 1874.2619,-274"/>
<text text-anchor="middle" x="1831" y="-251.8" font-family="Times,serif" font-size="14.00" fill="#000000">CoreModule</text>
</g>
<!-- AppModule -->
<g id="node5" class="node">
<title>AppModule</title>
<polygon fill="#8dd3c7" stroke="#000000" points="1933.6571,-339 1930.6571,-343 1909.6571,-343 1906.6571,-339 1850.3429,-339 1850.3429,-303 1933.6571,-303 1933.6571,-339"/>
<text text-anchor="middle" x="1892" y="-316.8" font-family="Times,serif" font-size="14.00" fill="#000000">AppModule</text>
</g>
<!-- CoreModule&#45;&gt;AppModule -->
<g id="edge1" class="edge">
<title>CoreModule&#45;&gt;AppModule</title>
<path fill="none" stroke="#000000" d="M1862.2763,-274.1061C1862.2763,-274.1061 1862.2763,-292.991 1862.2763,-292.991"/>
<polygon fill="#000000" stroke="#000000" points="1858.7764,-292.9909 1862.2763,-302.991 1865.7764,-292.991 1858.7764,-292.9909"/>
</g>
<!-- AppComponent  -->
<g id="node6" class="node">
<title>AppComponent </title>
<polygon fill="#80b1d3" stroke="#000000" points="1916.439,-404 1807.561,-404 1807.561,-368 1916.439,-368 1916.439,-404"/>
<text text-anchor="middle" x="1862" y="-381.8" font-family="Times,serif" font-size="14.00" fill="#000000">AppComponent </text>
</g>
<!-- CoreModule&#45;&gt;AppComponent  -->
<g id="edge24" class="edge">
<title>CoreModule&#45;&gt;AppComponent </title>
<path fill="none" stroke="#000000" stroke-dasharray="5,2" d="M1828.8512,-274.0759C1828.8512,-274.0759 1828.8512,-357.6585 1828.8512,-357.6585"/>
<polygon fill="#000000" stroke="#000000" points="1825.3512,-357.6585 1828.8512,-367.6585 1832.3512,-357.6585 1825.3512,-357.6585"/>
</g>
<!-- LayoutComponent  -->
<g id="node25" class="node">
<title>LayoutComponent </title>
<polygon fill="#fb8072" stroke="#000000" points="1632.4912,-198 1507.5088,-198 1507.5088,-162 1632.4912,-162 1632.4912,-198"/>
<text text-anchor="middle" x="1570" y="-175.8" font-family="Times,serif" font-size="14.00" fill="#000000">LayoutComponent </text>
</g>
<!-- CoreModule&#45;&gt;LayoutComponent  -->
<g id="edge25" class="edge">
<title>CoreModule&#45;&gt;LayoutComponent </title>
<path fill="none" stroke="#000000" stroke-dasharray="5,2" d="M1826.1799,-237.8568C1826.1799,-231.5389 1826.1799,-226 1826.1799,-226 1826.1799,-226 1570,-226 1570,-226 1570,-226 1570,-208.1804 1570,-208.1804"/>
<polygon fill="#000000" stroke="#000000" points="1573.5001,-208.1804 1570,-198.1804 1566.5001,-208.1805 1573.5001,-208.1804"/>
</g>
<!-- HeaderComponent  -->
<g id="node26" class="node">
<title>HeaderComponent </title>
<polygon fill="#fb8072" stroke="#000000" points="1489.7436,-198 1364.2564,-198 1364.2564,-162 1489.7436,-162 1489.7436,-198"/>
<text text-anchor="middle" x="1427" y="-175.8" font-family="Times,serif" font-size="14.00" fill="#000000">HeaderComponent </text>
</g>
<!-- CoreModule&#45;&gt;HeaderComponent  -->
<g id="edge26" class="edge">
<title>CoreModule&#45;&gt;HeaderComponent </title>
<path fill="none" stroke="#000000" stroke-dasharray="5,2" d="M1816.5397,-237.8408C1816.5397,-232.9567 1816.5397,-229 1816.5397,-229 1816.5397,-229 1427,-229 1427,-229 1427,-229 1427,-208.2458 1427,-208.2458"/>
<polygon fill="#000000" stroke="#000000" points="1430.5001,-208.2458 1427,-198.2458 1423.5001,-208.2458 1430.5001,-208.2458"/>
</g>
<!-- ContactFormPageComponent  -->
<g id="node27" class="node">
<title>ContactFormPageComponent </title>
<polygon fill="#fb8072" stroke="#000000" points="1345.925,-198 1160.075,-198 1160.075,-162 1345.925,-162 1345.925,-198"/>
<text text-anchor="middle" x="1253" y="-175.8" font-family="Times,serif" font-size="14.00" fill="#000000">ContactFormPageComponent </text>
</g>
<!-- CoreModule&#45;&gt;ContactFormPageComponent  -->
<g id="edge27" class="edge">
<title>CoreModule&#45;&gt;ContactFormPageComponent </title>
<path fill="none" stroke="#000000" stroke-dasharray="5,2" d="M1806.8996,-237.8097C1806.8996,-234.4624 1806.8996,-232 1806.8996,-232 1806.8996,-232 1253,-232 1253,-232 1253,-232 1253,-208.1871 1253,-208.1871"/>
<polygon fill="#000000" stroke="#000000" points="1256.5001,-208.187 1253,-198.1871 1249.5001,-208.1871 1256.5001,-208.187"/>
</g>
<!-- NotFoundPageComponent  -->
<g id="node28" class="node">
<title>NotFoundPageComponent </title>
<polygon fill="#fb8072" stroke="#000000" points="1142.3241,-198 973.6759,-198 973.6759,-162 1142.3241,-162 1142.3241,-198"/>
<text text-anchor="middle" x="1058" y="-175.8" font-family="Times,serif" font-size="14.00" fill="#000000">NotFoundPageComponent </text>
</g>
<!-- CoreModule&#45;&gt;NotFoundPageComponent  -->
<g id="edge28" class="edge">
<title>CoreModule&#45;&gt;NotFoundPageComponent </title>
<path fill="none" stroke="#000000" stroke-dasharray="5,2" d="M1797.2594,-237.92C1797.2594,-236.1536 1797.2594,-235 1797.2594,-235 1797.2594,-235 1058,-235 1058,-235 1058,-235 1058,-208.0091 1058,-208.0091"/>
<polygon fill="#000000" stroke="#000000" points="1061.5001,-208.009 1058,-198.0091 1054.5001,-208.0091 1061.5001,-208.009"/>
</g>
<!-- CategoriesModule -->
<g id="node2" class="node">
<title>CategoriesModule</title>
<polygon fill="#8dd3c7" stroke="#000000" points="1769.9173,-274 1766.9173,-278 1745.9173,-278 1742.9173,-274 1650.0827,-274 1650.0827,-238 1769.9173,-238 1769.9173,-274"/>
<text text-anchor="middle" x="1710" y="-251.8" font-family="Times,serif" font-size="14.00" fill="#000000">CategoriesModule</text>
</g>
<!-- CategoriesModule&#45;&gt;AppModule -->
<g id="edge2" class="edge">
<title>CategoriesModule&#45;&gt;AppModule</title>
<path fill="none" stroke="#000000" d="M1710,-274.1061C1710,-293.3391 1710,-321 1710,-321 1710,-321 1840.2455,-321 1840.2455,-321"/>
<polygon fill="#000000" stroke="#000000" points="1840.2456,-324.5001 1850.2455,-321 1840.2455,-317.5001 1840.2456,-324.5001"/>
</g>
<!-- PlaylistsModule -->
<g id="node3" class="node">
<title>PlaylistsModule</title>
<polygon fill="#8dd3c7" stroke="#000000" points="2104.4986,-274 2101.4986,-278 2080.4986,-278 2077.4986,-274 1997.5014,-274 1997.5014,-238 2104.4986,-238 2104.4986,-274"/>
<text text-anchor="middle" x="2051" y="-251.8" font-family="Times,serif" font-size="14.00" fill="#000000">PlaylistsModule</text>
</g>
<!-- PlaylistsModule&#45;&gt;AppModule -->
<g id="edge3" class="edge">
<title>PlaylistsModule&#45;&gt;AppModule</title>
<path fill="none" stroke="#000000" d="M2051,-274.1061C2051,-293.3391 2051,-321 2051,-321 2051,-321 1943.7754,-321 1943.7754,-321"/>
<polygon fill="#000000" stroke="#000000" points="1943.7754,-317.5001 1933.7754,-321 1943.7753,-324.5001 1943.7754,-317.5001"/>
</g>
<!-- AuthModule -->
<g id="node4" class="node">
<title>AuthModule</title>
<polygon fill="#8dd3c7" stroke="#000000" points="1979.5482,-274 1976.5482,-278 1955.5482,-278 1952.5482,-274 1892.4518,-274 1892.4518,-238 1979.5482,-238 1979.5482,-274"/>
<text text-anchor="middle" x="1936" y="-251.8" font-family="Times,serif" font-size="14.00" fill="#000000">AuthModule</text>
</g>
<!-- AuthModule&#45;&gt;AppModule -->
<g id="edge4" class="edge">
<title>AuthModule&#45;&gt;AppModule</title>
<path fill="none" stroke="#000000" d="M1913.0274,-274.1061C1913.0274,-274.1061 1913.0274,-292.991 1913.0274,-292.991"/>
<polygon fill="#000000" stroke="#000000" points="1909.5274,-292.9909 1913.0274,-302.991 1916.5274,-292.991 1909.5274,-292.9909"/>
</g>
<!-- AppModule&#45;&gt;AppComponent  -->
<g id="edge5" class="edge">
<title>AppModule&#45;&gt;AppComponent </title>
<path fill="none" stroke="#000000" stroke-dasharray="1,5" d="M1883.3207,-339.1061C1883.3207,-339.1061 1883.3207,-357.991 1883.3207,-357.991"/>
<polygon fill="#000000" stroke="#000000" points="1879.8207,-357.9909 1883.3207,-367.991 1886.8207,-357.991 1879.8207,-357.9909"/>
</g>
<!-- LoginPageComponent -->
<g id="node7" class="node">
<title>LoginPageComponent</title>
<polygon fill="#ffffb3" stroke="#000000" points="3320.9874,-198 3179.0126,-198 3179.0126,-162 3320.9874,-162 3320.9874,-198"/>
<text text-anchor="middle" x="3250" y="-175.8" font-family="Times,serif" font-size="14.00" fill="#000000">LoginPageComponent</text>
</g>
<!-- LoginPageComponent&#45;&gt;AuthModule -->
<g id="edge6" class="edge">
<title>LoginPageComponent&#45;&gt;AuthModule</title>
<path fill="none" stroke="#000000" d="M3250,-198.4854C3250,-210.1399 3250,-223 3250,-223 3250,-223 1966.7009,-223 1966.7009,-223 1966.7009,-223 1966.7009,-227.9551 1966.7009,-227.9551"/>
<polygon fill="#000000" stroke="#000000" points="1963.201,-227.9551 1966.7009,-237.9551 1970.201,-227.9552 1963.201,-227.9551"/>
</g>
<!-- ProfilePageComponent -->
<g id="node8" class="node">
<title>ProfilePageComponent</title>
<polygon fill="#ffffb3" stroke="#000000" points="3161.1442,-198 3014.8558,-198 3014.8558,-162 3161.1442,-162 3161.1442,-198"/>
<text text-anchor="middle" x="3088" y="-175.8" font-family="Times,serif" font-size="14.00" fill="#000000">ProfilePageComponent</text>
</g>
<!-- ProfilePageComponent&#45;&gt;AuthModule -->
<g id="edge7" class="edge">
<title>ProfilePageComponent&#45;&gt;AuthModule</title>
<path fill="none" stroke="#000000" d="M3088,-198.1274C3088,-208.7109 3088,-220 3088,-220 3088,-220 1953.6283,-220 1953.6283,-220 1953.6283,-220 1953.6283,-227.5782 1953.6283,-227.5782"/>
<polygon fill="#000000" stroke="#000000" points="1950.1284,-227.5781 1953.6283,-237.5782 1957.1284,-227.5782 1950.1284,-227.5781"/>
</g>
<!-- ProfileInfoComponent -->
<g id="node9" class="node">
<title>ProfileInfoComponent</title>
<polygon fill="#ffffb3" stroke="#000000" points="2996.2534,-198 2853.7466,-198 2853.7466,-162 2996.2534,-162 2996.2534,-198"/>
<text text-anchor="middle" x="2925" y="-175.8" font-family="Times,serif" font-size="14.00" fill="#000000">ProfileInfoComponent</text>
</g>
<!-- ProfileInfoComponent&#45;&gt;AuthModule -->
<g id="edge8" class="edge">
<title>ProfileInfoComponent&#45;&gt;AuthModule</title>
<path fill="none" stroke="#000000" d="M2925,-198.0664C2925,-207.4587 2925,-217 2925,-217 2925,-217 1940.5558,-217 1940.5558,-217 1940.5558,-217 1940.5558,-227.8701 1940.5558,-227.8701"/>
<polygon fill="#000000" stroke="#000000" points="1937.0558,-227.8701 1940.5558,-237.8701 1944.0558,-227.8701 1937.0558,-227.8701"/>
</g>
<!-- AuthService -->
<g id="node10" class="node">
<title>AuthService</title>
<ellipse fill="#fdb462" stroke="#000000" cx="2771" cy="-180" rx="59.1083" ry="18"/>
<text text-anchor="middle" x="2771" y="-175.8" font-family="Times,serif" font-size="14.00" fill="#000000">AuthService</text>
</g>
<!-- AuthService&#45;&gt;AuthModule -->
<g id="edge9" class="edge">
<title>AuthService&#45;&gt;AuthModule</title>
<path fill="none" stroke="#000000" d="M2771,-198.1944C2771,-206.2782 2771,-214 2771,-214 2771,-214 1927.4832,-214 1927.4832,-214 1927.4832,-214 1927.4832,-227.9445 1927.4832,-227.9445"/>
<polygon fill="#000000" stroke="#000000" points="1923.9833,-227.9444 1927.4832,-237.9445 1930.9833,-227.9445 1923.9833,-227.9444"/>
</g>
<!-- AuthGuard -->
<g id="node11" class="node">
<title>AuthGuard</title>
<ellipse fill="#fdb462" stroke="#000000" cx="2639" cy="-180" rx="54.4566" ry="18"/>
<text text-anchor="middle" x="2639" y="-175.8" font-family="Times,serif" font-size="14.00" fill="#000000">AuthGuard</text>
</g>
<!-- AuthGuard&#45;&gt;AuthModule -->
<g id="edge10" class="edge">
<title>AuthGuard&#45;&gt;AuthModule</title>
<path fill="none" stroke="#000000" d="M2639,-198.0328C2639,-204.8526 2639,-211 2639,-211 2639,-211 1914.4106,-211 1914.4106,-211 1914.4106,-211 1914.4106,-227.9561 1914.4106,-227.9561"/>
<polygon fill="#000000" stroke="#000000" points="1910.9107,-227.956 1914.4106,-237.9561 1917.9107,-227.9561 1910.9107,-227.956"/>
</g>
<!-- CategoriesPageComponent -->
<g id="node12" class="node">
<title>CategoriesPageComponent</title>
<polygon fill="#ffffb3" stroke="#000000" points="192.4115,-122 23.5885,-122 23.5885,-86 192.4115,-86 192.4115,-122"/>
<text text-anchor="middle" x="108" y="-99.8" font-family="Times,serif" font-size="14.00" fill="#000000">CategoriesPageComponent</text>
</g>
<!-- CategoriesPageComponent&#45;&gt;CategoriesModule -->
<g id="edge11" class="edge">
<title>CategoriesPageComponent&#45;&gt;CategoriesModule</title>
<path fill="none" stroke="#000000" d="M108,-122.0809C108,-165.1045 108,-270 108,-270 108,-270 1640.1235,-270 1640.1235,-270"/>
<polygon fill="#000000" stroke="#000000" points="1640.1235,-273.5001 1650.1235,-270 1640.1235,-266.5001 1640.1235,-273.5001"/>
</g>
<!-- CategoriesItemComponent -->
<g id="node13" class="node">
<title>CategoriesItemComponent</title>
<polygon fill="#ffffb3" stroke="#000000" points="377.3557,-122 210.6443,-122 210.6443,-86 377.3557,-86 377.3557,-122"/>
<text text-anchor="middle" x="294" y="-99.8" font-family="Times,serif" font-size="14.00" fill="#000000">CategoriesItemComponent</text>
</g>
<!-- CategoriesItemComponent&#45;&gt;CategoriesModule -->
<g id="edge12" class="edge">
<title>CategoriesItemComponent&#45;&gt;CategoriesModule</title>
<path fill="none" stroke="#000000" d="M294,-122.1558C294,-164.2614 294,-265 294,-265 294,-265 1640.0607,-265 1640.0607,-265"/>
<polygon fill="#000000" stroke="#000000" points="1640.0607,-268.5001 1650.0607,-265 1640.0606,-261.5001 1640.0607,-268.5001"/>
</g>
<!-- CategoryPageComponent -->
<g id="node14" class="node">
<title>CategoryPageComponent</title>
<polygon fill="#ffffb3" stroke="#000000" points="554.8613,-122 395.1387,-122 395.1387,-86 554.8613,-86 554.8613,-122"/>
<text text-anchor="middle" x="475" y="-99.8" font-family="Times,serif" font-size="14.00" fill="#000000">CategoryPageComponent</text>
</g>
<!-- CategoryPageComponent&#45;&gt;CategoriesModule -->
<g id="edge13" class="edge">
<title>CategoryPageComponent&#45;&gt;CategoriesModule</title>
<path fill="none" stroke="#000000" d="M475,-122.0099C475,-163.2487 475,-261 475,-261 475,-261 1640.016,-261 1640.016,-261"/>
<polygon fill="#000000" stroke="#000000" points="1640.0161,-264.5001 1650.016,-261 1640.016,-257.5001 1640.0161,-264.5001"/>
</g>
<!-- PlaylistItemComponent -->
<g id="node15" class="node">
<title>PlaylistItemComponent</title>
<polygon fill="#ffffb3" stroke="#000000" points="721.493,-122 572.507,-122 572.507,-86 721.493,-86 721.493,-122"/>
<text text-anchor="middle" x="647" y="-99.8" font-family="Times,serif" font-size="14.00" fill="#000000">PlaylistItemComponent</text>
</g>
<!-- PlaylistItemComponent&#45;&gt;CategoriesModule -->
<g id="edge14" class="edge">
<title>PlaylistItemComponent&#45;&gt;CategoriesModule</title>
<path fill="none" stroke="#000000" d="M647,-122.0333C647,-162.2965 647,-256 647,-256 647,-256 1640.1873,-256 1640.1873,-256"/>
<polygon fill="#000000" stroke="#000000" points="1640.1873,-259.5001 1650.1873,-256 1640.1873,-252.5001 1640.1873,-259.5001"/>
</g>
<!-- CategoryDetailsComponent -->
<g id="node16" class="node">
<title>CategoryDetailsComponent</title>
<polygon fill="#ffffb3" stroke="#000000" points="912.3019,-122 739.6981,-122 739.6981,-86 912.3019,-86 912.3019,-122"/>
<text text-anchor="middle" x="826" y="-99.8" font-family="Times,serif" font-size="14.00" fill="#000000">CategoryDetailsComponent</text>
</g>
<!-- CategoryDetailsComponent&#45;&gt;CategoriesModule -->
<g id="edge15" class="edge">
<title>CategoryDetailsComponent&#45;&gt;CategoriesModule</title>
<path fill="none" stroke="#000000" d="M826,-122.1477C826,-161.668 826,-252 826,-252 826,-252 1640.2803,-252 1640.2803,-252"/>
<polygon fill="#000000" stroke="#000000" points="1640.2803,-255.5001 1650.2803,-252 1640.2802,-248.5001 1640.2803,-255.5001"/>
</g>
<!-- SpotifyApiService -->
<g id="node17" class="node">
<title>SpotifyApiService</title>
<ellipse fill="#fdb462" stroke="#000000" cx="1199" cy="-104" rx="82.8225" ry="18"/>
<text text-anchor="middle" x="1199" y="-99.8" font-family="Times,serif" font-size="14.00" fill="#000000">SpotifyApiService</text>
</g>
<!-- SpotifyApiService&#45;&gt;CategoriesModule -->
<g id="edge16" class="edge">
<title>SpotifyApiService&#45;&gt;CategoriesModule</title>
<path fill="none" stroke="#000000" d="M1151.2248,-118.8754C1151.2248,-154.7336 1151.2248,-243 1151.2248,-243 1151.2248,-243 1640.2013,-243 1640.2013,-243"/>
<polygon fill="#000000" stroke="#000000" points="1640.2013,-246.5001 1650.2013,-243 1640.2012,-239.5001 1640.2013,-246.5001"/>
</g>
<!-- SpotifyApiService&#45;&gt;PlaylistsModule -->
<g id="edge32" class="edge">
<title>SpotifyApiService&#45;&gt;PlaylistsModule</title>
<path fill="none" stroke="#000000" d="M1241.2866,-119.606C1241.2866,-124.1899 1241.2866,-128 1241.2866,-128 1241.2866,-128 2075.7248,-128 2075.7248,-128 2075.7248,-128 2075.7248,-227.9322 2075.7248,-227.9322"/>
<polygon fill="#000000" stroke="#000000" points="2072.2248,-227.9322 2075.7248,-237.9322 2079.2248,-227.9322 2072.2248,-227.9322"/>
</g>
<!-- SearchModule -->
<g id="node24" class="node">
<title>SearchModule</title>
<polygon fill="#8dd3c7" stroke="#000000" points="1753.6375,-198 1750.6375,-202 1729.6375,-202 1726.6375,-198 1656.3625,-198 1656.3625,-162 1753.6375,-162 1753.6375,-198"/>
<text text-anchor="middle" x="1705" y="-175.8" font-family="Times,serif" font-size="14.00" fill="#000000">SearchModule</text>
</g>
<!-- SpotifyApiService&#45;&gt;SearchModule -->
<g id="edge39" class="edge">
<title>SpotifyApiService&#45;&gt;SearchModule</title>
<path fill="none" stroke="#000000" d="M1200.6621,-122C1200.6621,-131 1200.6621,-140 1200.6621,-140 1200.6621,-140 1670.1297,-140 1670.1297,-140 1670.1297,-140 1670.1297,-151.8726 1670.1297,-151.8726"/>
<polygon fill="#000000" stroke="#000000" points="1666.6298,-151.8725 1670.1297,-161.8726 1673.6298,-151.8726 1666.6298,-151.8725"/>
</g>
<!-- CategoriesService -->
<g id="node18" class="node">
<title>CategoriesService</title>
<ellipse fill="#fdb462" stroke="#000000" cx="1017" cy="-104" rx="81.0744" ry="18"/>
<text text-anchor="middle" x="1017" y="-99.8" font-family="Times,serif" font-size="14.00" fill="#000000">CategoriesService</text>
</g>
<!-- CategoriesService&#45;&gt;CategoriesModule -->
<g id="edge17" class="edge">
<title>CategoriesService&#45;&gt;CategoriesModule</title>
<path fill="none" stroke="#000000" d="M954.6505,-115.7023C954.6505,-149.8549 954.6505,-247 954.6505,-247 954.6505,-247 1640.0976,-247 1640.0976,-247"/>
<polygon fill="#000000" stroke="#000000" points="1640.0977,-250.5001 1650.0976,-247 1640.0976,-243.5001 1640.0977,-250.5001"/>
</g>
<!-- AppComponent -->
<g id="node19" class="node">
<title>AppComponent</title>
<polygon fill="#ffffb3" stroke="#000000" points="1883.9399,-198 1778.0601,-198 1778.0601,-162 1883.9399,-162 1883.9399,-198"/>
<text text-anchor="middle" x="1831" y="-175.8" font-family="Times,serif" font-size="14.00" fill="#000000">AppComponent</text>
</g>
<!-- AppComponent&#45;&gt;CoreModule -->
<g id="edge18" class="edge">
<title>AppComponent&#45;&gt;CoreModule</title>
<path fill="none" stroke="#000000" d="M1835.8201,-198.0109C1835.8201,-198.0109 1835.8201,-227.855 1835.8201,-227.855"/>
<polygon fill="#000000" stroke="#000000" points="1832.3202,-227.8549 1835.8201,-237.855 1839.3202,-227.855 1832.3202,-227.8549"/>
</g>
<!-- LayoutComponent -->
<g id="node20" class="node">
<title>LayoutComponent</title>
<polygon fill="#ffffb3" stroke="#000000" points="2545.4902,-198 2424.5098,-198 2424.5098,-162 2545.4902,-162 2545.4902,-198"/>
<text text-anchor="middle" x="2485" y="-175.8" font-family="Times,serif" font-size="14.00" fill="#000000">LayoutComponent</text>
</g>
<!-- LayoutComponent&#45;&gt;CoreModule -->
<g id="edge19" class="edge">
<title>LayoutComponent&#45;&gt;CoreModule</title>
<path fill="none" stroke="#000000" d="M2485,-198.207C2485,-203.5549 2485,-208 2485,-208 2485,-208 1864.7406,-208 1864.7406,-208 1864.7406,-208 1864.7406,-227.8533 1864.7406,-227.8533"/>
<polygon fill="#000000" stroke="#000000" points="1861.2407,-227.8532 1864.7406,-237.8533 1868.2407,-227.8533 1861.2407,-227.8532"/>
</g>
<!-- HeaderComponent -->
<g id="node21" class="node">
<title>HeaderComponent</title>
<polygon fill="#ffffb3" stroke="#000000" points="2406.7437,-198 2285.2563,-198 2285.2563,-162 2406.7437,-162 2406.7437,-198"/>
<text text-anchor="middle" x="2346" y="-175.8" font-family="Times,serif" font-size="14.00" fill="#000000">HeaderComponent</text>
</g>
<!-- HeaderComponent&#45;&gt;CoreModule -->
<g id="edge20" class="edge">
<title>HeaderComponent&#45;&gt;CoreModule</title>
<path fill="none" stroke="#000000" d="M2346,-198.1686C2346,-202.0459 2346,-205 2346,-205 2346,-205 1855.1004,-205 1855.1004,-205 1855.1004,-205 1855.1004,-227.8757 1855.1004,-227.8757"/>
<polygon fill="#000000" stroke="#000000" points="1851.6005,-227.8757 1855.1004,-237.8757 1858.6005,-227.8757 1851.6005,-227.8757"/>
</g>
<!-- ContactFormPageComponent -->
<g id="node22" class="node">
<title>ContactFormPageComponent</title>
<polygon fill="#ffffb3" stroke="#000000" points="2267.4255,-198 2084.5745,-198 2084.5745,-162 2267.4255,-162 2267.4255,-198"/>
<text text-anchor="middle" x="2176" y="-175.8" font-family="Times,serif" font-size="14.00" fill="#000000">ContactFormPageComponent</text>
</g>
<!-- ContactFormPageComponent&#45;&gt;CoreModule -->
<g id="edge21" class="edge">
<title>ContactFormPageComponent&#45;&gt;CoreModule</title>
<path fill="none" stroke="#000000" d="M2094.6434,-198.1679C2094.6434,-200.4478 2094.6434,-202 2094.6434,-202 2094.6434,-202 1845.4603,-202 1845.4603,-202 1845.4603,-202 1845.4603,-227.7181 1845.4603,-227.7181"/>
<polygon fill="#000000" stroke="#000000" points="1841.9604,-227.718 1845.4603,-237.7181 1848.9604,-227.7181 1841.9604,-227.718"/>
</g>
<!-- NotFoundPageComponent -->
<g id="node23" class="node">
<title>NotFoundPageComponent</title>
<polygon fill="#ffffb3" stroke="#000000" points="2066.8243,-198 1901.1757,-198 1901.1757,-162 2066.8243,-162 2066.8243,-198"/>
<text text-anchor="middle" x="1984" y="-175.8" font-family="Times,serif" font-size="14.00" fill="#000000">NotFoundPageComponent</text>
</g>
<!-- NotFoundPageComponent&#45;&gt;CoreModule -->
<g id="edge22" class="edge">
<title>NotFoundPageComponent&#45;&gt;CoreModule</title>
<path fill="none" stroke="#000000" d="M1901.3251,-180C1893.2479,-180 1887.973,-180 1887.973,-180 1887.973,-180 1887.973,-256 1887.973,-256 1887.973,-256 1884.4712,-256 1884.4712,-256"/>
<polygon fill="#000000" stroke="#000000" points="1884.4712,-252.5001 1874.4712,-256 1884.4712,-259.5001 1884.4712,-252.5001"/>
</g>
<!-- SearchModule&#45;&gt;CoreModule -->
<g id="edge23" class="edge">
<title>SearchModule&#45;&gt;CoreModule</title>
<path fill="none" stroke="#000000" d="M1753.667,-180C1765.0837,-180 1773.9944,-180 1773.9944,-180 1773.9944,-180 1773.9944,-256 1773.9944,-256 1773.9944,-256 1777.5039,-256 1777.5039,-256"/>
<polygon fill="#000000" stroke="#000000" points="1777.504,-259.5001 1787.5039,-256 1777.5039,-252.5001 1777.504,-259.5001"/>
</g>
<!-- SearchFormComponent  -->
<g id="node37" class="node">
<title>SearchFormComponent </title>
<polygon fill="#fb8072" stroke="#000000" points="1631.7534,-122 1478.2466,-122 1478.2466,-86 1631.7534,-86 1631.7534,-122"/>
<text text-anchor="middle" x="1555" y="-99.8" font-family="Times,serif" font-size="14.00" fill="#000000">SearchFormComponent </text>
</g>
<!-- SearchModule&#45;&gt;SearchFormComponent  -->
<g id="edge38" class="edge">
<title>SearchModule&#45;&gt;SearchFormComponent </title>
<path fill="none" stroke="#000000" stroke-dasharray="5,2" d="M1656.0499,-180C1647.4922,-180 1641.2684,-180 1641.2684,-180 1641.2684,-180 1641.2684,-104 1641.2684,-104 1641.2684,-104 1640.3122,-104 1640.3122,-104"/>
<polygon fill="#000000" stroke="#000000" points="1641.7066,-100.5001 1631.7066,-104 1641.7065,-107.5001 1641.7066,-100.5001"/>
</g>
<!-- SinglePlaylistComponent -->
<g id="node29" class="node">
<title>SinglePlaylistComponent</title>
<polygon fill="#ffffb3" stroke="#000000" points="4028.615,-198 3869.385,-198 3869.385,-162 4028.615,-162 4028.615,-198"/>
<text text-anchor="middle" x="3949" y="-175.8" font-family="Times,serif" font-size="14.00" fill="#000000">SinglePlaylistComponent</text>
</g>
<!-- SinglePlaylistComponent&#45;&gt;PlaylistsModule -->
<g id="edge29" class="edge">
<title>SinglePlaylistComponent&#45;&gt;PlaylistsModule</title>
<path fill="none" stroke="#000000" d="M3949,-198.0265C3949,-223.5093 3949,-267 3949,-267 3949,-267 2114.7461,-267 2114.7461,-267"/>
<polygon fill="#000000" stroke="#000000" points="2114.7461,-263.5001 2104.7461,-267 2114.7461,-270.5001 2114.7461,-263.5001"/>
</g>
<!-- PlaylistDetailsComponent -->
<g id="node30" class="node">
<title>PlaylistDetailsComponent</title>
<polygon fill="#ffffb3" stroke="#000000" points="3851.4888,-198 3688.5112,-198 3688.5112,-162 3851.4888,-162 3851.4888,-198"/>
<text text-anchor="middle" x="3770" y="-175.8" font-family="Times,serif" font-size="14.00" fill="#000000">PlaylistDetailsComponent</text>
</g>
<!-- PlaylistDetailsComponent&#45;&gt;PlaylistsModule -->
<g id="edge30" class="edge">
<title>PlaylistDetailsComponent&#45;&gt;PlaylistsModule</title>
<path fill="none" stroke="#000000" d="M3770,-198.1532C3770,-221.7566 3770,-260 3770,-260 3770,-260 2114.8073,-260 2114.8073,-260"/>
<polygon fill="#000000" stroke="#000000" points="2114.8074,-256.5001 2104.8073,-260 2114.8073,-263.5001 2114.8074,-256.5001"/>
</g>
<!-- TrackItemComponent -->
<g id="node31" class="node">
<title>TrackItemComponent</title>
<polygon fill="#ffffb3" stroke="#000000" points="3670.6317,-198 3531.3683,-198 3531.3683,-162 3670.6317,-162 3670.6317,-198"/>
<text text-anchor="middle" x="3601" y="-175.8" font-family="Times,serif" font-size="14.00" fill="#000000">TrackItemComponent</text>
</g>
<!-- TrackItemComponent&#45;&gt;PlaylistsModule -->
<g id="edge31" class="edge">
<title>TrackItemComponent&#45;&gt;PlaylistsModule</title>
<path fill="none" stroke="#000000" d="M3601,-198.0449C3601,-219.6623 3601,-253 3601,-253 3601,-253 2114.8046,-253 2114.8046,-253"/>
<polygon fill="#000000" stroke="#000000" points="2114.8047,-249.5001 2104.8046,-253 2114.8046,-256.5001 2114.8047,-249.5001"/>
</g>
<!-- PlaylistsService -->
<g id="node32" class="node">
<title>PlaylistsService</title>
<ellipse fill="#fdb462" stroke="#000000" cx="3434" cy="-180" rx="72.9431" ry="18"/>
<text text-anchor="middle" x="3434" y="-175.8" font-family="Times,serif" font-size="14.00" fill="#000000">PlaylistsService</text>
</g>
<!-- PlaylistsService&#45;&gt;PlaylistsModule -->
<g id="edge33" class="edge">
<title>PlaylistsService&#45;&gt;PlaylistsModule</title>
<path fill="none" stroke="#000000" d="M3434,-198.0348C3434,-217.5762 3434,-246 3434,-246 3434,-246 2114.7908,-246 2114.7908,-246"/>
<polygon fill="#000000" stroke="#000000" points="2114.7908,-242.5001 2104.7908,-246 2114.7907,-249.5001 2114.7908,-242.5001"/>
</g>
<!-- SearchFormComponent -->
<g id="node33" class="node">
<title>SearchFormComponent</title>
<polygon fill="#ffffb3" stroke="#000000" points="1971.7534,-122 1822.2466,-122 1822.2466,-86 1971.7534,-86 1971.7534,-122"/>
<text text-anchor="middle" x="1897" y="-99.8" font-family="Times,serif" font-size="14.00" fill="#000000">SearchFormComponent</text>
</g>
<!-- SearchFormComponent&#45;&gt;SearchModule -->
<g id="edge34" class="edge">
<title>SearchFormComponent&#45;&gt;SearchModule</title>
<path fill="none" stroke="#000000" d="M1852.9215,-122.1025C1852.9215,-133.0859 1852.9215,-145 1852.9215,-145 1852.9215,-145 1711.9741,-145 1711.9741,-145 1711.9741,-145 1711.9741,-151.68 1711.9741,-151.68"/>
<polygon fill="#000000" stroke="#000000" points="1708.4742,-151.6799 1711.9741,-161.68 1715.4742,-151.68 1708.4742,-151.6799"/>
</g>
<!-- SearchInputComponent -->
<g id="node34" class="node">
<title>SearchInputComponent</title>
<polygon fill="#ffffb3" stroke="#000000" points="1804.4706,-122 1655.5294,-122 1655.5294,-86 1804.4706,-86 1804.4706,-122"/>
<text text-anchor="middle" x="1730" y="-99.8" font-family="Times,serif" font-size="14.00" fill="#000000">SearchInputComponent</text>
</g>
<!-- SearchInputComponent&#45;&gt;SearchModule -->
<g id="edge35" class="edge">
<title>SearchInputComponent&#45;&gt;SearchModule</title>
<path fill="none" stroke="#000000" d="M1698.0259,-122.0109C1698.0259,-122.0109 1698.0259,-151.855 1698.0259,-151.855"/>
<polygon fill="#000000" stroke="#000000" points="1694.526,-151.8549 1698.0259,-161.855 1701.526,-151.855 1694.526,-151.8549"/>
</g>
<!-- SearchTrackItemComponent -->
<g id="node35" class="node">
<title>SearchTrackItemComponent</title>
<polygon fill="#ffffb3" stroke="#000000" points="2361.7184,-122 2184.2816,-122 2184.2816,-86 2361.7184,-86 2361.7184,-122"/>
<text text-anchor="middle" x="2273" y="-99.8" font-family="Times,serif" font-size="14.00" fill="#000000">SearchTrackItemComponent</text>
</g>
<!-- SearchTrackItemComponent&#45;&gt;SearchModule -->
<g id="edge36" class="edge">
<title>SearchTrackItemComponent&#45;&gt;SearchModule</title>
<path fill="none" stroke="#000000" d="M2225.6767,-122.2396C2225.6767,-137.5706 2225.6767,-157 2225.6767,-157 2225.6767,-157 1739.8703,-157 1739.8703,-157 1739.8703,-157 1739.8703,-157.4878 1739.8703,-157.4878"/>
<polygon fill="#000000" stroke="#000000" points="1736.3705,-151.8776 1739.8703,-161.8777 1743.3705,-151.8778 1736.3705,-151.8776"/>
</g>
<!-- SearchArtistItemComponent -->
<g id="node36" class="node">
<title>SearchArtistItemComponent</title>
<polygon fill="#ffffb3" stroke="#000000" points="2166.4594,-122 1989.5406,-122 1989.5406,-86 2166.4594,-86 2166.4594,-122"/>
<text text-anchor="middle" x="2078" y="-99.8" font-family="Times,serif" font-size="14.00" fill="#000000">SearchArtistItemComponent</text>
</g>
<!-- SearchArtistItemComponent&#45;&gt;SearchModule -->
<g id="edge37" class="edge">
<title>SearchArtistItemComponent&#45;&gt;SearchModule</title>
<path fill="none" stroke="#000000" d="M2028.0912,-122.037C2028.0912,-135.2913 2028.0912,-151 2028.0912,-151 2028.0912,-151 1725.9222,-151 1725.9222,-151 1725.9222,-151 1725.9222,-152.0799 1725.9222,-152.0799"/>
<polygon fill="#000000" stroke="#000000" points="1722.4223,-151.7985 1725.9222,-161.7985 1729.4223,-151.7986 1722.4223,-151.7985"/>
</g>
<!-- SearchService -->
<g id="node38" class="node">
<title>SearchService</title>
<ellipse fill="#fdb462" stroke="#000000" cx="1388" cy="-104" rx="66.0281" ry="18"/>
<text text-anchor="middle" x="1388" y="-99.8" font-family="Times,serif" font-size="14.00" fill="#000000">SearchService</text>
</g>
<!-- SearchService&#45;&gt;SearchModule -->
<g id="edge40" class="edge">
<title>SearchService&#45;&gt;SearchModule</title>
<path fill="none" stroke="#000000" d="M1409.321,-121.1032C1409.321,-127.8403 1409.321,-134 1409.321,-134 1409.321,-134 1684.0778,-134 1684.0778,-134 1684.0778,-134 1684.0778,-151.8196 1684.0778,-151.8196"/>
<polygon fill="#000000" stroke="#000000" points="1680.5779,-151.8195 1684.0778,-161.8196 1687.5779,-151.8196 1680.5779,-151.8195"/>
</g>
<!-- ContentGridComponent -->
<g id="node39" class="node">
<title>ContentGridComponent</title>
<polygon fill="#ffffb3" stroke="#000000" points="4221.8229,-122 4070.1771,-122 4070.1771,-86 4221.8229,-86 4221.8229,-122"/>
<text text-anchor="middle" x="4146" y="-99.8" font-family="Times,serif" font-size="14.00" fill="#000000">ContentGridComponent</text>
</g>
<!-- SharedComponentsModule -->
<g id="node40" class="node">
<title>SharedComponentsModule</title>
<polygon fill="#8dd3c7" stroke="#000000" points="4230.6993,-198 4227.6993,-202 4206.6993,-202 4203.6993,-198 4061.3007,-198 4061.3007,-162 4230.6993,-162 4230.6993,-198"/>
<text text-anchor="middle" x="4146" y="-175.8" font-family="Times,serif" font-size="14.00" fill="#000000">SharedComponentsModule</text>
</g>
<!-- ContentGridComponent&#45;&gt;SharedComponentsModule -->
<g id="edge41" class="edge">
<title>ContentGridComponent&#45;&gt;SharedComponentsModule</title>
<path fill="none" stroke="#000000" d="M4146,-122.0109C4146,-122.0109 4146,-151.855 4146,-151.855"/>
<polygon fill="#000000" stroke="#000000" points="4142.5001,-151.8549 4146,-161.855 4149.5001,-151.855 4142.5001,-151.8549"/>
</g>
<!-- ContentGridComponent  -->
<g id="node41" class="node">
<title>ContentGridComponent </title>
<polygon fill="#fb8072" stroke="#000000" points="4223.3227,-274 4068.6773,-274 4068.6773,-238 4223.3227,-238 4223.3227,-274"/>
<text text-anchor="middle" x="4146" y="-251.8" font-family="Times,serif" font-size="14.00" fill="#000000">ContentGridComponent </text>
</g>
<!-- SharedComponentsModule&#45;&gt;ContentGridComponent  -->
<g id="edge42" class="edge">
<title>SharedComponentsModule&#45;&gt;ContentGridComponent </title>
<path fill="none" stroke="#000000" stroke-dasharray="5,2" d="M4146,-198.0109C4146,-198.0109 4146,-227.855 4146,-227.855"/>
<polygon fill="#000000" stroke="#000000" points="4142.5001,-227.8549 4146,-237.855 4149.5001,-227.855 4142.5001,-227.8549"/>
</g>
</g>
</svg>
